25 Truy vết tiếp xúc | Cẩm nang dịch tễ học với R
…
Với cấu trúc dữ liệu Go.Data, bộ dữ liệu relationships bao gồm độ tuổi của cả các ca mắc và những người tiếp xúc, vì vậy bạn có thể sử dụng bộ dữ liệu đó và tạo tháp tuổi cho thấy sự khác biệt giữa hai nhóm người này. Data frame relationships sẽ được biến đổi để chuyển các cột tuổi ở dạng số số thành các nhóm định danh (xem chương Làm sạch số liệu và các hàm quan trọng). Chúng ta cũng sẽ xoay trục dataframe sang định dạng dọc nhằm vẽ biểu đồ dễ dàng hơn với ggplot2 (xem chương Xoay trục dữ liệu).

relation_age <- relationships %>% 
  select(source_age, target_age) %>% 
  transmute(                              # transmute is like mutate() but removes all other columns not mentioned
    source_age_class = epikit::age_categories(source_age, breakers = seq(0, 80, 5)),
    target_age_class = epikit::age_categories(target_age, breakers = seq(0, 80, 5)),
    ) %>% 
  pivot_longer(cols = contains("class"), names_to = "category", values_to = "age_class")  # pivot longer

relation_age

## # A tibble: 200 x 2
##    category         age_class
##    <chr>            <fct>    
##  1 source_age_class 80+      
##  2 target_age_class 15-19    
##  3 source_age_class <NA>     
##  4 target_age_class 50-54    
##  5 source_age_class <NA>     
##  6 target_age_class 20-24    
##  7 source_age_class 30-34    
##  8 target_age_class 45-49    
##  9 source_age_class 40-44    
## 10 target_age_class 30-34    
## # ... with 190 more rows
…
Số người tiếp xúc trên mỗi ca mắc có thể là một thước đo quan trọng để đánh giá chất lượng của việc điều tra số người tiếp xúc và mức độ tuân thủ của người dân với việc ứng phó sức khỏe cộng đồng.

Tùy thuộc vào cấu trúc dữ liệu của bạn, điều này có thể được đánh giá thông qua bộ dữ liệu chứa thông tin tất cả các ca mắc và những người tiếp xúc. Trong bộ dữ liệu Go.Data, liên kết giữa các ca mắc (“nguồn”) và những người tiếp xúc (“mục tiêu”) được lưu trữ trong bộ dữ liệu relationships.

Trong bộ dữ liệu này, mỗi hàng là một người tiếp xúc và trong đó có liệt kê ca mắc nguồn. Không có người tiếp xúc nào có mối quan hệ với nhiều ca mắc, nhưng nếu điều này tồn tại, bạn có thể cần tính toán những người đó trước khi vẽ biểu đồ (và khám phá chúng nữa!).

Chúng ta bắt đầu bằng cách đếm số hàng (người tiếp xúc) trên mỗi ca mắc nguồn. Kết quả này được lưu dưới dạng một data frame.

contacts_per_case <- relationships %>% 
  count(source_visualid)

contacts_per_case

## # A tibble: 23 x 2
##    source_visualid     n
##    <chr>           <int>
##  1 CASE-2020-0001     13
##  2 CASE-2020-0002      5
##  3 CASE-2020-0003      2
##  4 CASE-2020-0004      4
##  5 CASE-2020-0005      5
##  6 CASE-2020-0006      3
##  7 CASE-2020-0008      3
##  8 CASE-2020-0009      3
##  9 CASE-2020-0010      3
## 10 CASE-2020-0012      3
## # ... with 13 more rows
…
