13 Nhóm dữ liệu | Cẩm nang dịch tễ học với R
…
Hàm group_by() từ dplyr nhóm các hàng theo các giá trị duy nhất trong cột chỉ định. Nếu nhiều cột được chỉ định, các hàng được nhóm theo sự tổ hợp các giá trị thành giá trị duy nhất từ các cột. Mỗi giá trị duy nhất (hoặc tổ hợp các giá trị) tạo thành một nhóm. Những thay đổi sau đó đối với bộ dữ liệu hoặc các phép tính có thể thực hiện tùy theo đặc điểm của mỗi nhóm.

Ví dụ: lệnh bên dưới truy vấn bộ số liệu linelist và nhóm các hàng theo giá trị duy nhất trong cột outcome, lưu kết quả đầu ra dưới dạng bộ dữ liệu mới có tên ll_by_outcome. (Các) cột được nhóm được đặt bên trong dấu ngoặc đơn của hàm group_by().

ll_by_outcome <- linelist %>% 
  group_by(outcome)

Lưu ý rằng không có thay đổi dễ nhận thấy nào đối với bộ dữ liệu sau khi chạy lệnh group_by(), cho đến khi phối hợp thêm một số hàm từ dplyr khác như mutate(), summarise(), hoặc arrange() trong bộ dữ liệu “đã được nhóm”.

Tuy nhiên, bạn có thể “xem” các nhóm bằng cách in bộ dữ liệu. Khi bạn in một bộ dữ liệu được nhóm, bạn sẽ thấy nó đã được chuyển đổi thành một đối tượng dạng tibble, mà khi được in ra, sẽ hiển thị những nhóm nào đã được áp dụng và có bao nhiêu nhóm - được viết ngay phía trên hàng tiêu đề.

# print to see which groups are active
ll_by_outcome

## # A tibble: 5,888 x 30
## # Groups:   outcome [3]
##    case_id generation date_infection date_onset date_hospitalisa~ date_outcome outcome gender   age age_unit age_years age_cat age_cat5 hospital    lon
##    <chr>        <dbl> <date>         <date>     <date>            <date>       <chr>   <chr>  <dbl> <chr>        <dbl> <fct>   <fct>    <chr>     <dbl>
##  1 5fe599           4 2014-05-08     2014-05-13 2014-05-15        NA           <NA>    m          2 years            2 0-4     0-4      Other     -13.2
##  2 8689b7           4 NA             2014-05-13 2014-05-14        2014-05-18   Recover f          3 years            3 0-4     0-4      Missing   -13.2
##  3 11f8ea           2 NA             2014-05-16 2014-05-18        2014-05-30   Recover m         56 years           56 50-69   55-59    St. Mark~ -13.2
##  4 b8812a           3 2014-05-04     2014-05-18 2014-05-20        NA           <NA>    f         18 years           18 15-19   15-19    Port Hos~ -13.2
##  5 893f25           3 2014-05-18     2014-05-21 2014-05-22        2014-05-29   Recover m          3 years            3 0-4     0-4      Military~ -13.2
##  6 be99c8           3 2014-05-03     2014-05-22 2014-05-23        2014-05-24   Recover f         16 years           16 15-19   15-19    Port Hos~ -13.2
##  7 07e3e8           4 2014-05-22     2014-05-27 2014-05-29        2014-06-01   Recover f         16 years           16 15-19   15-19    Missing   -13.2
##  8 369449           4 2014-05-28     2014-06-02 2014-06-03        2014-06-07   Death   f          0 years            0 0-4     0-4      Missing   -13.2
##  9 f393b4           4 NA             2014-06-05 2014-06-06        2014-06-18   Recover m         61 years           61 50-69   60-64    Missing   -13.2
## 10 1389ca           4 NA             2014-06-05 2014-06-07        2014-06-09   Death   f         27 years           27 20-29   25-29    Missing   -13.3
## # ... with 5,878 more rows, and 15 more variables: lat <dbl>, infector <chr>, source <chr>, wt_kg <dbl>, ht_cm <dbl>, ct_blood <dbl>, fever <chr>,
## #   chills <chr>, cough <chr>, aches <chr>, vomit <chr>, temp <dbl>, time_admission <chr>, bmi <dbl>, days_onset_hosp <dbl>
…
Thêm giá trị đếm

Ngược lại với count() và summarise(), bạn có thể sử dụng add_count() để thêm một cột mới n với số lượng hàng cho mỗi nhóm trong khi vẫn giữ lại tất cả các cột khác trong dữ liệu.

Điều này có nghĩa là số lượng của nhóm, trong cột mới n, sẽ được in ra trong mỗi hàng của nhóm. Với mục đích minh họa, chúng tôi thêm cột này và sau đó sắp xếp lại các cột để dễ xem hơn. Xem mục bên dưới về bộ lọc theo kích thước nhóm để biết một ví dụ khác.

linelist %>% 
  as_tibble() %>%                   # convert to tibble for nicer printing 
  add_count(hospital) %>%           # add column n with counts by hospital
  select(hospital, n, everything()) # re-arrange for demo purposes

## # A tibble: 5,888 x 31
##    hospital       n case_id generation date_infection date_onset date_hospitalis~ date_outcome outcome gender   age age_unit age_years age_cat age_cat5
##    <chr>      <int> <chr>        <dbl> <date>         <date>     <date>           <date>       <chr>   <chr>  <dbl> <chr>        <dbl> <fct>   <fct>   
##  1 Other        885 5fe599           4 2014-05-08     2014-05-13 2014-05-15       NA           <NA>    m          2 years            2 0-4     0-4     
##  2 Missing     1469 8689b7           4 NA             2014-05-13 2014-05-14       2014-05-18   Recover f          3 years            3 0-4     0-4     
##  3 St. Mark'~   422 11f8ea           2 NA             2014-05-16 2014-05-18       2014-05-30   Recover m         56 years           56 50-69   55-59   
##  4 Port Hosp~  1762 b8812a           3 2014-05-04     2014-05-18 2014-05-20       NA           <NA>    f         18 years           18 15-19   15-19   
##  5 Military ~   896 893f25           3 2014-05-18     2014-05-21 2014-05-22       2014-05-29   Recover m          3 years            3 0-4     0-4     
##  6 Port Hosp~  1762 be99c8           3 2014-05-03     2014-05-22 2014-05-23       2014-05-24   Recover f         16 years           16 15-19   15-19   
##  7 Missing     1469 07e3e8           4 2014-05-22     2014-05-27 2014-05-29       2014-06-01   Recover f         16 years           16 15-19   15-19   
##  8 Missing     1469 369449           4 2014-05-28     2014-06-02 2014-06-03       2014-06-07   Death   f          0 years            0 0-4     0-4     
##  9 Missing     1469 f393b4           4 NA             2014-06-05 2014-06-06       2014-06-18   Recover m         61 years           61 50-69   60-64   
## 10 Missing     1469 1389ca           4 NA             2014-06-05 2014-06-07       2014-06-09   Death   f         27 years           27 20-29   25-29   
## # ... with 5,878 more rows, and 16 more variables: lon <dbl>, lat <dbl>, infector <chr>, source <chr>, wt_kg <dbl>, ht_cm <dbl>, ct_blood <dbl>,
## #   fever <chr>, chills <chr>, cough <chr>, aches <chr>, vomit <chr>, temp <dbl>, time_admission <chr>, bmi <dbl>, days_onset_hosp <dbl>
…
Nhóm bộ số liệu linelist theo cột hospital

Sắp xếp bản ghi từ gần nhất đến xa nhất theo date_hospitalisation trong mỗi nhóm bệnh viện

Cắt để lấy 5 hàng đầu tiên từ mỗi bệnh viện

linelist %>%
  group_by(hospital) %>%
  arrange(hospital, date_hospitalisation) %>%
  slice_head(n = 5) %>% 
  arrange(hospital) %>%                            # for display
  select(case_id, hospital, date_hospitalisation)  # for display

## # A tibble: 30 x 3
## # Groups:   hospital [6]
##    case_id hospital          date_hospitalisation
##    <chr>   <chr>             <date>              
##  1 20b688  Central Hospital  2014-05-06          
##  2 d58402  Central Hospital  2014-05-10          
##  3 b8f2fd  Central Hospital  2014-05-13          
##  4 acf422  Central Hospital  2014-05-28          
##  5 275cc7  Central Hospital  2014-05-28          
##  6 d1fafd  Military Hospital 2014-04-17          
##  7 974bc1  Military Hospital 2014-05-13          
##  8 6a9004  Military Hospital 2014-05-13          
##  9 09e386  Military Hospital 2014-05-14          
## 10 865581  Military Hospital 2014-05-15          
## # ... with 20 more rows
…
Xem chương Loại bỏ trùng lặp để tham khảo thêm ví dụ và chi tiết về hàm slice().

Lọc theo quy mô nhóm

Hàm add_count() thêm một cột n vào dữ liệu gốc cho biết số hàng trong nhóm của hàng đó.

Như trình bày bên dưới, add_count() được áp dụng cho cột hospital, vì vậy các giá trị trong cột mới n phản ánh số hàng trong nhóm bệnh viện của hàng đó. Lưu ý cách các giá trị trong cột n được lặp lại. Trong ví dụ dưới đây, tên cột n có thể được thay đổi bằng cách sử dụng đối số name = trong add_count(). Với mục đích diễn giải, chúng ta sắp xếp lại các cột với select().

linelist %>% 
  as_tibble() %>% 
  add_count(hospital) %>%          # add "number of rows admitted to same hospital as this row" 
  select(hospital, n, everything())

## # A tibble: 5,888 x 31
##    hospital       n case_id generation date_infection date_onset date_hospitalis~ date_outcome outcome gender   age age_unit age_years age_cat age_cat5
##    <chr>      <int> <chr>        <dbl> <date>         <date>     <date>           <date>       <chr>   <chr>  <dbl> <chr>        <dbl> <fct>   <fct>   
##  1 Other        885 5fe599           4 2014-05-08     2014-05-13 2014-05-15       NA           <NA>    m          2 years            2 0-4     0-4     
##  2 Missing     1469 8689b7           4 NA             2014-05-13 2014-05-14       2014-05-18   Recover f          3 years            3 0-4     0-4     
##  3 St. Mark'~   422 11f8ea           2 NA             2014-05-16 2014-05-18       2014-05-30   Recover m         56 years           56 50-69   55-59   
##  4 Port Hosp~  1762 b8812a           3 2014-05-04     2014-05-18 2014-05-20       NA           <NA>    f         18 years           18 15-19   15-19   
##  5 Military ~   896 893f25           3 2014-05-18     2014-05-21 2014-05-22       2014-05-29   Recover m          3 years            3 0-4     0-4     
##  6 Port Hosp~  1762 be99c8           3 2014-05-03     2014-05-22 2014-05-23       2014-05-24   Recover f         16 years           16 15-19   15-19   
##  7 Missing     1469 07e3e8           4 2014-05-22     2014-05-27 2014-05-29       2014-06-01   Recover f         16 years           16 15-19   15-19   
##  8 Missing     1469 369449           4 2014-05-28     2014-06-02 2014-06-03       2014-06-07   Death   f          0 years            0 0-4     0-4     
##  9 Missing     1469 f393b4           4 NA             2014-06-05 2014-06-06       2014-06-18   Recover m         61 years           61 50-69   60-64   
## 10 Missing     1469 1389ca           4 NA             2014-06-05 2014-06-07       2014-06-09   Death   f         27 years           27 20-29   25-29   
## # ... with 5,878 more rows, and 16 more variables: lon <dbl>, lat <dbl>, infector <chr>, source <chr>, wt_kg <dbl>, ht_cm <dbl>, ct_blood <dbl>,
## #   fever <chr>, chills <chr>, cough <chr>, aches <chr>, vomit <chr>, temp <dbl>, time_admission <chr>, bmi <dbl>, days_onset_hosp <dbl>
…
  # new columns
  mutate(
    # mean days to admission per hospital (rounded to 1 decimal)
    group_delay_admit = round(mean(days_onset_hosp, na.rm=T), 1),
    
    # difference between row's delay and mean delay at their hospital (rounded to 1 decimal)
    diff_to_group     = round(days_onset_hosp - group_delay_admit, 1)) %>%
  
  # select certain rows only - for demonstration/viewing purposes
  select(case_id, hospital, days_onset_hosp, group_delay_admit, diff_to_group)

## # A tibble: 5,888 x 5
## # Groups:   hospital [6]
##    case_id hospital                             days_onset_hosp group_delay_admit diff_to_group
##    <chr>   <chr>                                          <dbl>             <dbl>         <dbl>
##  1 5fe599  Other                                              2               2             0  
##  2 8689b7  Missing                                            1               2.1          -1.1
##  3 11f8ea  St. Mark's Maternity Hospital (SMMH)               2               2.1          -0.1
##  4 b8812a  Port Hospital                                      2               2.1          -0.1
##  5 893f25  Military Hospital                                  1               2.1          -1.1
##  6 be99c8  Port Hospital                                      1               2.1          -1.1
##  7 07e3e8  Missing                                            2               2.1          -0.1
##  8 369449  Missing                                            1               2.1          -1.1
##  9 f393b4  Missing                                            1               2.1          -1.1
## 10 1389ca  Missing                                            2               2.1          -0.1
## # ... with 5,878 more rows
…
