43 Dashboards với Shiny | Cẩm nang dịch tễ học với R
…
Phát triển một hàm để trực quan hóa dữ liệu của chúng ta dựa trên đầu vào của người dùng

Danh sách này khá đơn giản và không quá khó để thực hiện. Bây giờ, điều quan trọng là phải nghĩ về những phần nào của quy trình này chỉ được thực hiện một lần và những phần nào cần chạy dựa theo các đầu vào của người dùng. Điều này là do các ứng dụng shiny thường chạy một số code trước khi chạy, code này chỉ được thực hiện một lần. Nó sẽ giúp cải thiện hiệu suất ứng dụng của chúng ta nếu có thể chuyển nhiều code đến phần này. Đối với ví dụ này, chúng ta chỉ cần tải dữ liệu/packages của mình và thực hiện các phép biến đổi cơ bản một lần, vì vậy chúng ta có thể đặt code đó bên ngoài máy chủ. Điều này có nghĩa là thứ duy nhất chúng ta cần trong máy chủ là code để trực quan hóa dữ liệu của chúng ta. Trước tiên, hãy phát triển tất cả các thành phần này trong một script. Tuy nhiên, vì chúng ta đang trực quan hóa dữ liệu của mình bằng một hàm, chúng ta cũng có thể đặt code cho hàm bên ngoài máy chủ để hàm của chúng ta ở trong môi trường khi ứng dụng chạy!

Đầu tiên, hãy tải dữ liệu của chúng ta. Vì chúng ta đang làm việc với một dự án mới và chúng ta cần làm sạch số liệu, chúng ta có thể tạo một thư mục mới có tên là data và thêm bộ dữ liệu sốt rét vào đó. Chúng ta có thể chạy code bên dưới trong một script thử nghiệm mà cuối cùng chúng ta sẽ xóa khi chúng ta dọn cấu trúc ứng dụng của mình.

pacman::p_load("tidyverse", "lubridate")

# read data
malaria_data <- rio::import(here::here("data", "malaria_facility_count_data.rds")) %>% 
  as_tibble()

print(malaria_data)

## # A tibble: 3,038 x 10
##    location_name data_date  submitted_date Province District `malaria_rdt_0-4` `malaria_rdt_5-14` malaria_rdt_15 malaria_tot newid
##    <chr>         <date>     <date>         <chr>    <chr>                <int>              <int>          <int>       <int> <int>
##  1 Facility 1    2020-08-11 2020-08-12     North    Spring                  11                 12             23          46     1
##  2 Facility 2    2020-08-11 2020-08-12     North    Bolo                    11                 10              5          26     2
##  3 Facility 3    2020-08-11 2020-08-12     North    Dingo                    8                  5              5          18     3
##  4 Facility 4    2020-08-11 2020-08-12     North    Bolo                    16                 16             17          49     4
##  5 Facility 5    2020-08-11 2020-08-12     North    Bolo                     9                  2              6          17     5
##  6 Facility 6    2020-08-11 2020-08-12     North    Dingo                    3                  1              4           8     6
##  7 Facility 6    2020-08-10 2020-08-12     North    Dingo                    4                  0              3           7     6
##  8 Facility 5    2020-08-10 2020-08-12     North    Bolo                    15                 14             13          42     5
##  9 Facility 5    2020-08-09 2020-08-12     North    Bolo                    11                 11             13          35     5
## 10 Facility 5    2020-08-08 2020-08-12     North    Bolo                    19                 15             15          49     5
## # ... with 3,028 more rows

Sẽ dễ dàng hơn để làm việc với dữ liệu này nếu chúng ta sử dụng các tiêu chuẩn dữ liệu tidy, vì vậy chúng ta cũng nên chuyển đổi dữ liệu sang định dạng dài hơn, trong đó nhóm tuổi là một cột và các trường hợp là một cột khác. Chúng ta có thể thực hiện việc này một cách dễ dàng bằng cách sử dụng những gì chúng ta đã học được trong chương Xoay trục dữ liệu.

malaria_data <- malaria_data %>%
  select(-newid) %>%
  pivot_longer(cols = starts_with("malaria_"), names_to = "age_group", values_to = "cases_reported")

print(malaria_data)

## # A tibble: 12,152 x 7
##    location_name data_date  submitted_date Province District age_group        cases_reported
##    <chr>         <date>     <date>         <chr>    <chr>    <chr>                     <int>
##  1 Facility 1    2020-08-11 2020-08-12     North    Spring   malaria_rdt_0-4              11
##  2 Facility 1    2020-08-11 2020-08-12     North    Spring   malaria_rdt_5-14             12
##  3 Facility 1    2020-08-11 2020-08-12     North    Spring   malaria_rdt_15               23
##  4 Facility 1    2020-08-11 2020-08-12     North    Spring   malaria_tot                  46
##  5 Facility 2    2020-08-11 2020-08-12     North    Bolo     malaria_rdt_0-4              11
##  6 Facility 2    2020-08-11 2020-08-12     North    Bolo     malaria_rdt_5-14             10
##  7 Facility 2    2020-08-11 2020-08-12     North    Bolo     malaria_rdt_15                5
##  8 Facility 2    2020-08-11 2020-08-12     North    Bolo     malaria_tot                  26
##  9 Facility 3    2020-08-11 2020-08-12     North    Dingo    malaria_rdt_0-4               8
## 10 Facility 3    2020-08-11 2020-08-12     North    Dingo    malaria_rdt_5-14              5
## # ... with 12,142 more rows
…
# data frame of location names by district
facility_list <- malaria_data %>%
  group_by(location_name, District) %>%
  summarise() %>% 
  ungroup()

Hãy xem chúng:

all_districts

## [1] "All"     "Spring"  "Bolo"    "Dingo"   "Barnard"

facility_list

## # A tibble: 65 x 2
##    location_name District
##    <chr>         <chr>   
##  1 Facility 1    Spring  
##  2 Facility 10   Bolo    
##  3 Facility 11   Spring  
##  4 Facility 12   Dingo   
##  5 Facility 13   Bolo    
##  6 Facility 14   Dingo   
##  7 Facility 15   Barnard 
##  8 Facility 16   Barnard 
##  9 Facility 17   Barnard 
## 10 Facility 18   Bolo    
## # ... with 55 more rows
…
